GameJam1/Score.class
GameJam1/ObjectiveBox.class
GameJam1/CountDownBlock.class
GameJam1/App.class
GameJam1/Objective.class
GameJam1/TickCountDown.class
GameJam1/WelcomeScreen.class
GameJam1/WelcomeScreen$Screen.class
GameJam1/App$1.class
GameJam1/Tile.class
module-info.class
GameJam1/TickPlayer.class
GameJam1/MapBuilder.class
GameJam1/Player.class
GameJam1/Camera.class
GameJam1/ObjectiveText.class
